%YAML 1.1
%TAG !u! tag:unity3d.com,2011:
--- !u!1045 &1
EditorBuildSettings:
  m_ObjectHideFlags: 0
  serializedVersion: 2
  m_Scenes:
  - enabled: 1
    path: Assets/Scenes/MainMenu.unity
    guid: 0c593eff45138dd4e8ce529eb1203fd6
  - enabled: 1
    path: Assets/Scenes/DownloadScene.unity
    guid: 1b2d31de7f05e0c4899a1715234164c0
  - enabled: 1
    path: Assets/Scenes/SampleScene.unity
    guid: 9fc0d4010bbf28b4594072e72b8655ab
  - enabled: 1
    path: Assets/Scenes/PlayerWin.unity
    guid: 6bb103fb1de842b4b8226b440112ab3d
  - enabled: 1
    path: Assets/Scenes/GhostWin.unity
    guid: ac23ff6cdafd16b429ab95af4943b517
  - enabled: 1
    path: Assets/Scenes/CreditScene.unity
    guid: 2eb9df3926260804fb1a918c3d5bb44a
  - enabled: 1
    path: Assets/Scenes/SettingScene.unity
    guid: 87cbdafc101c3114ebfd0bfc8e8accf0
  - enabled: 1
    path: Assets/Scenes/ExitScene.unity
    guid: aa649349621b86e4a96cb3f8af99cae4
  m_configObjects: {}
