%YAML 1.1
%TAG !u! tag:unity3d.com,2011:
--- !u!1045 &1
EditorBuildSettings:
  m_ObjectHideFlags: 0
  serializedVersion: 2
  m_Scenes:
  - enabled: 1
    path: Assets/Scenes/Menu.unity
    guid: 0fbc9d7497def354f93fc61b8632bb3c
  - enabled: 1
    path: Assets/Scenes/MainMenu.unity
    guid: 75cbfb51eb58bef49a3627e6f8b2feb0
  - enabled: 1
    path: Assets/Scenes/IP.unity
    guid: fe69170e23878b54c951908e60e163ed
  - enabled: 1
    path: Assets/Scenes/MainGame.unity
    guid: 9fc0d4010bbf28b4594072e72b8655ab
  - enabled: 1
    path: Assets/Scenes/Credit.unity
    guid: 2e61c3d394b8f3e4d83228bf83974306
  - enabled: 1
    path: Assets/Scenes/Login.unity
    guid: 4f8a321babc3640439e4d72900377ccf
  - enabled: 1
    path: Assets/Scenes/Option.unity
    guid: bb99a58f36a498643aa8c2b95e996e2f
  m_configObjects: {}
