# Blender v2.80 (sub 75) OBJ File: 'objek.blend'
# www.blender.org
mtllib pager_Parkiran.mtl
o Cylinder.009_Cylinder.021
v 0.000000 0.005130 -0.004039
v 0.000000 2.005130 -0.004039
v 0.013656 0.005130 -0.002694
v 0.013656 2.005130 -0.002694
v 0.026788 0.005130 0.001290
v 0.026788 2.005130 0.001290
v 0.038890 0.005130 0.007759
v 0.038890 2.005130 0.007759
v 0.049497 0.005130 0.016464
v 0.049497 2.005130 0.016464
v 0.058203 0.005130 0.027072
v 0.058203 2.005130 0.027072
v 0.064672 0.005130 0.039174
v 0.064672 2.005130 0.039174
v 0.068655 0.005130 0.052305
v 0.068655 2.005130 0.052305
v 0.070000 0.005130 0.065961
v 0.070000 2.005130 0.065961
v 0.068655 0.005130 0.079618
v 0.068655 2.005130 0.079618
v 0.064672 0.005130 0.092749
v 0.064672 2.005130 0.092749
v 0.058203 0.005130 0.104851
v 0.058203 2.005130 0.104851
v 0.049497 0.005130 0.115459
v 0.049497 2.005130 0.115459
v 0.038890 0.005130 0.124164
v 0.038890 2.005130 0.124164
v 0.026788 0.005130 0.130633
v 0.026788 2.005130 0.130633
v 0.013656 0.005130 0.134616
v 0.013656 2.005130 0.134616
v -0.000000 0.005130 0.135961
v -0.000000 2.005130 0.135961
v -0.013656 0.005130 0.134616
v -0.013656 2.005130 0.134616
v -0.026788 0.005130 0.130633
v -0.026788 2.005130 0.130633
v -0.038890 0.005130 0.124164
v -0.038890 2.005130 0.124164
v -0.049498 0.005130 0.115459
v -0.049498 2.005130 0.115459
v -0.058203 0.005130 0.104851
v -0.058203 2.005130 0.104851
v -0.064672 0.005130 0.092749
v -0.064672 2.005130 0.092749
v -0.068655 0.005130 0.079618
v -0.068655 2.005130 0.079618
v -0.070000 0.005130 0.065961
v -0.070000 2.005130 0.065961
v -0.068655 0.005130 0.052305
v -0.068655 2.005130 0.052305
v -0.064672 0.005130 0.039174
v -0.064672 2.005130 0.039174
v -0.058203 0.005130 0.027071
v -0.058203 2.005130 0.027071
v -0.049497 0.005130 0.016464
v -0.049497 2.005130 0.016464
v -0.038890 0.005130 0.007759
v -0.038890 2.005130 0.007759
v -0.026788 0.005130 0.001290
v -0.026788 2.005130 0.001290
v -0.013656 0.005130 -0.002694
v -0.013656 2.005130 -0.002694
vt 1.000000 0.500000
vt 1.000000 1.000000
vt 0.968750 1.000000
vt 0.968750 0.500000
vt 0.937500 1.000000
vt 0.937500 0.500000
vt 0.906250 1.000000
vt 0.906250 0.500000
vt 0.875000 1.000000
vt 0.875000 0.500000
vt 0.843750 1.000000
vt 0.843750 0.500000
vt 0.812500 1.000000
vt 0.812500 0.500000
vt 0.781250 1.000000
vt 0.781250 0.500000
vt 0.750000 1.000000
vt 0.750000 0.500000
vt 0.718750 1.000000
vt 0.718750 0.500000
vt 0.687500 1.000000
vt 0.687500 0.500000
vt 0.656250 1.000000
vt 0.656250 0.500000
vt 0.625000 1.000000
vt 0.625000 0.500000
vt 0.593750 1.000000
vt 0.593750 0.500000
vt 0.562500 1.000000
vt 0.562500 0.500000
vt 0.531250 1.000000
vt 0.531250 0.500000
vt 0.500000 1.000000
vt 0.500000 0.500000
vt 0.468750 1.000000
vt 0.468750 0.500000
vt 0.437500 1.000000
vt 0.437500 0.500000
vt 0.406250 1.000000
vt 0.406250 0.500000
vt 0.375000 1.000000
vt 0.375000 0.500000
vt 0.343750 1.000000
vt 0.343750 0.500000
vt 0.312500 1.000000
vt 0.312500 0.500000
vt 0.281250 1.000000
vt 0.281250 0.500000
vt 0.250000 1.000000
vt 0.250000 0.500000
vt 0.218750 1.000000
vt 0.218750 0.500000
vt 0.187500 1.000000
vt 0.187500 0.500000
vt 0.156250 1.000000
vt 0.156250 0.500000
vt 0.125000 1.000000
vt 0.125000 0.500000
vt 0.093750 1.000000
vt 0.093750 0.500000
vt 0.062500 1.000000
vt 0.062500 0.500000
vt 0.296822 0.485388
vt 0.250000 0.490000
vt 0.203179 0.485389
vt 0.158156 0.471731
vt 0.116663 0.449553
vt 0.080295 0.419706
vt 0.050447 0.383337
vt 0.028269 0.341844
vt 0.014612 0.296822
vt 0.010000 0.250000
vt 0.014611 0.203179
vt 0.028269 0.158156
vt 0.050447 0.116663
vt 0.080294 0.080294
vt 0.116663 0.050447
vt 0.158156 0.028269
vt 0.203178 0.014612
vt 0.250000 0.010000
vt 0.296822 0.014612
vt 0.341844 0.028269
vt 0.383337 0.050447
vt 0.419706 0.080294
vt 0.449553 0.116663
vt 0.471731 0.158156
vt 0.485388 0.203178
vt 0.490000 0.250000
vt 0.485388 0.296822
vt 0.471731 0.341844
vt 0.449553 0.383337
vt 0.419706 0.419706
vt 0.383337 0.449553
vt 0.341844 0.471731
vt 0.031250 1.000000
vt 0.031250 0.500000
vt 0.000000 1.000000
vt 0.000000 0.500000
vt 0.750000 0.490000
vt 0.796822 0.485388
vt 0.841844 0.471731
vt 0.883337 0.449553
vt 0.919706 0.419706
vt 0.949553 0.383337
vt 0.971731 0.341844
vt 0.985388 0.296822
vt 0.990000 0.250000
vt 0.985388 0.203178
vt 0.971731 0.158156
vt 0.949553 0.116663
vt 0.919706 0.080294
vt 0.883337 0.050447
vt 0.841844 0.028269
vt 0.796822 0.014612
vt 0.750000 0.010000
vt 0.703178 0.014612
vt 0.658156 0.028269
vt 0.616663 0.050447
vt 0.580294 0.080294
vt 0.550447 0.116663
vt 0.528269 0.158156
vt 0.514611 0.203179
vt 0.510000 0.250000
vt 0.514612 0.296822
vt 0.528269 0.341844
vt 0.550447 0.383337
vt 0.580295 0.419706
vt 0.616663 0.449553
vt 0.658156 0.471731
vt 0.703179 0.485389
vn 0.0980 0.0000 -0.9952
vn 0.2903 0.0000 -0.9569
vn 0.4714 0.0000 -0.8819
vn 0.6344 0.0000 -0.7730
vn 0.7730 0.0000 -0.6344
vn 0.8819 0.0000 -0.4714
vn 0.9569 0.0000 -0.2903
vn 0.9952 0.0000 -0.0980
vn 0.9952 0.0000 0.0980
vn 0.9569 0.0000 0.2903
vn 0.8819 0.0000 0.4714
vn 0.7730 0.0000 0.6344
vn 0.6344 0.0000 0.7730
vn 0.4714 0.0000 0.8819
vn 0.2903 0.0000 0.9569
vn 0.0980 0.0000 0.9952
vn -0.0980 0.0000 0.9952
vn -0.2903 0.0000 0.9569
vn -0.4714 0.0000 0.8819
vn -0.6344 0.0000 0.7730
vn -0.7730 0.0000 0.6344
vn -0.8819 0.0000 0.4714
vn -0.9569 0.0000 0.2903
vn -0.9952 0.0000 0.0980
vn -0.9952 0.0000 -0.0980
vn -0.9569 0.0000 -0.2903
vn -0.8819 0.0000 -0.4714
vn -0.7730 0.0000 -0.6344
vn -0.6344 0.0000 -0.7730
vn -0.4714 0.0000 -0.8819
vn 0.0000 1.0000 -0.0000
vn -0.2903 0.0000 -0.9569
vn -0.0980 0.0000 -0.9952
vn 0.0000 -1.0000 -0.0000
usemtl None
s off
f 1/1/1 2/2/1 4/3/1 3/4/1
f 3/4/2 4/3/2 6/5/2 5/6/2
f 5/6/3 6/5/3 8/7/3 7/8/3
f 7/8/4 8/7/4 10/9/4 9/10/4
f 9/10/5 10/9/5 12/11/5 11/12/5
f 11/12/6 12/11/6 14/13/6 13/14/6
f 13/14/7 14/13/7 16/15/7 15/16/7
f 15/16/8 16/15/8 18/17/8 17/18/8
f 17/18/9 18/17/9 20/19/9 19/20/9
f 19/20/10 20/19/10 22/21/10 21/22/10
f 21/22/11 22/21/11 24/23/11 23/24/11
f 23/24/12 24/23/12 26/25/12 25/26/12
f 25/26/13 26/25/13 28/27/13 27/28/13
f 27/28/14 28/27/14 30/29/14 29/30/14
f 29/30/15 30/29/15 32/31/15 31/32/15
f 31/32/16 32/31/16 34/33/16 33/34/16
f 33/34/17 34/33/17 36/35/17 35/36/17
f 35/36/18 36/35/18 38/37/18 37/38/18
f 37/38/19 38/37/19 40/39/19 39/40/19
f 39/40/20 40/39/20 42/41/20 41/42/20
f 41/42/21 42/41/21 44/43/21 43/44/21
f 43/44/22 44/43/22 46/45/22 45/46/22
f 45/46/23 46/45/23 48/47/23 47/48/23
f 47/48/24 48/47/24 50/49/24 49/50/24
f 49/50/25 50/49/25 52/51/25 51/52/25
f 51/52/26 52/51/26 54/53/26 53/54/26
f 53/54/27 54/53/27 56/55/27 55/56/27
f 55/56/28 56/55/28 58/57/28 57/58/28
f 57/58/29 58/57/29 60/59/29 59/60/29
f 59/60/30 60/59/30 62/61/30 61/62/30
f 4/63/31 2/64/31 64/65/31 62/66/31 60/67/31 58/68/31 56/69/31 54/70/31 52/71/31 50/72/31 48/73/31 46/74/31 44/75/31 42/76/31 40/77/31 38/78/31 36/79/31 34/80/31 32/81/31 30/82/31 28/83/31 26/84/31 24/85/31 22/86/31 20/87/31 18/88/31 16/89/31 14/90/31 12/91/31 10/92/31 8/93/31 6/94/31
f 61/62/32 62/61/32 64/95/32 63/96/32
f 63/96/33 64/95/33 2/97/33 1/98/33
f 1/99/34 3/100/34 5/101/34 7/102/34 9/103/34 11/104/34 13/105/34 15/106/34 17/107/34 19/108/34 21/109/34 23/110/34 25/111/34 27/112/34 29/113/34 31/114/34 33/115/34 35/116/34 37/117/34 39/118/34 41/119/34 43/120/34 45/121/34 47/122/34 49/123/34 51/124/34 53/125/34 55/126/34 57/127/34 59/128/34 61/129/34 63/130/34
o Cylinder.010_Cylinder.022
v 0.000000 0.005130 -3.040111
v 0.000000 2.005130 -3.040111
v 0.013656 0.005130 -3.038766
v 0.013656 2.005130 -3.038766
v 0.026788 0.005130 -3.034782
v 0.026788 2.005130 -3.034782
v 0.038890 0.005130 -3.028314
v 0.038890 2.005130 -3.028314
v 0.049497 0.005130 -3.019608
v 0.049497 2.005130 -3.019608
v 0.058203 0.005130 -3.009001
v 0.058203 2.005130 -3.009001
v 0.064672 0.005130 -2.996898
v 0.064672 2.005130 -2.996898
v 0.068655 0.005130 -2.983767
v 0.068655 2.005130 -2.983767
v 0.070000 0.005130 -2.970111
v 0.070000 2.005130 -2.970111
v 0.068655 0.005130 -2.956454
v 0.068655 2.005130 -2.956454
v 0.064672 0.005130 -2.943323
v 0.064672 2.005130 -2.943323
v 0.058203 0.005130 -2.931221
v 0.058203 2.005130 -2.931221
v 0.049497 0.005130 -2.920613
v 0.049497 2.005130 -2.920613
v 0.038890 0.005130 -2.911908
v 0.038890 2.005130 -2.911908
v 0.026788 0.005130 -2.905439
v 0.026788 2.005130 -2.905439
v 0.013656 0.005130 -2.901456
v 0.013656 2.005130 -2.901456
v -0.000000 0.005130 -2.900111
v -0.000000 2.005130 -2.900111
v -0.013656 0.005130 -2.901456
v -0.013656 2.005130 -2.901456
v -0.026788 0.005130 -2.905439
v -0.026788 2.005130 -2.905439
v -0.038890 0.005130 -2.911908
v -0.038890 2.005130 -2.911908
v -0.049498 0.005130 -2.920613
v -0.049498 2.005130 -2.920613
v -0.058203 0.005130 -2.931221
v -0.058203 2.005130 -2.931221
v -0.064672 0.005130 -2.943323
v -0.064672 2.005130 -2.943323
v -0.068655 0.005130 -2.956454
v -0.068655 2.005130 -2.956454
v -0.070000 0.005130 -2.970111
v -0.070000 2.005130 -2.970111
v -0.068655 0.005130 -2.983767
v -0.068655 2.005130 -2.983767
v -0.064672 0.005130 -2.996899
v -0.064672 2.005130 -2.996899
v -0.058203 0.005130 -3.009001
v -0.058203 2.005130 -3.009001
v -0.049497 0.005130 -3.019608
v -0.049497 2.005130 -3.019608
v -0.038890 0.005130 -3.028314
v -0.038890 2.005130 -3.028314
v -0.026788 0.005130 -3.034782
v -0.026788 2.005130 -3.034782
v -0.013656 0.005130 -3.038766
v -0.013656 2.005130 -3.038766
vt 1.000000 0.500000
vt 1.000000 1.000000
vt 0.968750 1.000000
vt 0.968750 0.500000
vt 0.937500 1.000000
vt 0.937500 0.500000
vt 0.906250 1.000000
vt 0.906250 0.500000
vt 0.875000 1.000000
vt 0.875000 0.500000
vt 0.843750 1.000000
vt 0.843750 0.500000
vt 0.812500 1.000000
vt 0.812500 0.500000
vt 0.781250 1.000000
vt 0.781250 0.500000
vt 0.750000 1.000000
vt 0.750000 0.500000
vt 0.718750 1.000000
vt 0.718750 0.500000
vt 0.687500 1.000000
vt 0.687500 0.500000
vt 0.656250 1.000000
vt 0.656250 0.500000
vt 0.625000 1.000000
vt 0.625000 0.500000
vt 0.593750 1.000000
vt 0.593750 0.500000
vt 0.562500 1.000000
vt 0.562500 0.500000
vt 0.531250 1.000000
vt 0.531250 0.500000
vt 0.500000 1.000000
vt 0.500000 0.500000
vt 0.468750 1.000000
vt 0.468750 0.500000
vt 0.437500 1.000000
vt 0.437500 0.500000
vt 0.406250 1.000000
vt 0.406250 0.500000
vt 0.375000 1.000000
vt 0.375000 0.500000
vt 0.343750 1.000000
vt 0.343750 0.500000
vt 0.312500 1.000000
vt 0.312500 0.500000
vt 0.281250 1.000000
vt 0.281250 0.500000
vt 0.250000 1.000000
vt 0.250000 0.500000
vt 0.218750 1.000000
vt 0.218750 0.500000
vt 0.187500 1.000000
vt 0.187500 0.500000
vt 0.156250 1.000000
vt 0.156250 0.500000
vt 0.125000 1.000000
vt 0.125000 0.500000
vt 0.093750 1.000000
vt 0.093750 0.500000
vt 0.062500 1.000000
vt 0.062500 0.500000
vt 0.296822 0.485388
vt 0.250000 0.490000
vt 0.203179 0.485389
vt 0.158156 0.471731
vt 0.116663 0.449553
vt 0.080295 0.419706
vt 0.050447 0.383337
vt 0.028269 0.341844
vt 0.014612 0.296822
vt 0.010000 0.250000
vt 0.014611 0.203179
vt 0.028269 0.158156
vt 0.050447 0.116663
vt 0.080294 0.080294
vt 0.116663 0.050447
vt 0.158156 0.028269
vt 0.203178 0.014612
vt 0.250000 0.010000
vt 0.296822 0.014612
vt 0.341844 0.028269
vt 0.383337 0.050447
vt 0.419706 0.080294
vt 0.449553 0.116663
vt 0.471731 0.158156
vt 0.485388 0.203178
vt 0.490000 0.250000
vt 0.485388 0.296822
vt 0.471731 0.341844
vt 0.449553 0.383337
vt 0.419706 0.419706
vt 0.383337 0.449553
vt 0.341844 0.471731
vt 0.031250 1.000000
vt 0.031250 0.500000
vt 0.000000 1.000000
vt 0.000000 0.500000
vt 0.750000 0.490000
vt 0.796822 0.485388
vt 0.841844 0.471731
vt 0.883337 0.449553
vt 0.919706 0.419706
vt 0.949553 0.383337
vt 0.971731 0.341844
vt 0.985388 0.296822
vt 0.990000 0.250000
vt 0.985388 0.203178
vt 0.971731 0.158156
vt 0.949553 0.116663
vt 0.919706 0.080294
vt 0.883337 0.050447
vt 0.841844 0.028269
vt 0.796822 0.014612
vt 0.750000 0.010000
vt 0.703178 0.014612
vt 0.658156 0.028269
vt 0.616663 0.050447
vt 0.580294 0.080294
vt 0.550447 0.116663
vt 0.528269 0.158156
vt 0.514611 0.203179
vt 0.510000 0.250000
vt 0.514612 0.296822
vt 0.528269 0.341844
vt 0.550447 0.383337
vt 0.580295 0.419706
vt 0.616663 0.449553
vt 0.658156 0.471731
vt 0.703179 0.485389
vn 0.0980 0.0000 -0.9952
vn 0.2903 0.0000 -0.9569
vn 0.4714 0.0000 -0.8819
vn 0.6344 0.0000 -0.7730
vn 0.7730 0.0000 -0.6344
vn 0.8819 0.0000 -0.4714
vn 0.9569 0.0000 -0.2903
vn 0.9952 0.0000 -0.0980
vn 0.9952 0.0000 0.0980
vn 0.9569 0.0000 0.2903
vn 0.8819 0.0000 0.4714
vn 0.7730 0.0000 0.6344
vn 0.6344 0.0000 0.7730
vn 0.4714 0.0000 0.8819
vn 0.2903 0.0000 0.9569
vn 0.0980 0.0000 0.9952
vn -0.0980 0.0000 0.9952
vn -0.2903 0.0000 0.9569
vn -0.4714 0.0000 0.8819
vn -0.6344 0.0000 0.7730
vn -0.7730 0.0000 0.6344
vn -0.8819 0.0000 0.4714
vn -0.9569 0.0000 0.2903
vn -0.9952 0.0000 0.0980
vn -0.9952 0.0000 -0.0980
vn -0.9569 0.0000 -0.2903
vn -0.8819 0.0000 -0.4714
vn -0.7730 0.0000 -0.6344
vn -0.6344 0.0000 -0.7730
vn -0.4714 0.0000 -0.8819
vn 0.0000 1.0000 -0.0000
vn -0.2903 0.0000 -0.9569
vn -0.0980 0.0000 -0.9952
vn 0.0000 -1.0000 -0.0000
usemtl None
s off
f 65/131/35 66/132/35 68/133/35 67/134/35
f 67/134/36 68/133/36 70/135/36 69/136/36
f 69/136/37 70/135/37 72/137/37 71/138/37
f 71/138/38 72/137/38 74/139/38 73/140/38
f 73/140/39 74/139/39 76/141/39 75/142/39
f 75/142/40 76/141/40 78/143/40 77/144/40
f 77/144/41 78/143/41 80/145/41 79/146/41
f 79/146/42 80/145/42 82/147/42 81/148/42
f 81/148/43 82/147/43 84/149/43 83/150/43
f 83/150/44 84/149/44 86/151/44 85/152/44
f 85/152/45 86/151/45 88/153/45 87/154/45
f 87/154/46 88/153/46 90/155/46 89/156/46
f 89/156/47 90/155/47 92/157/47 91/158/47
f 91/158/48 92/157/48 94/159/48 93/160/48
f 93/160/49 94/159/49 96/161/49 95/162/49
f 95/162/50 96/161/50 98/163/50 97/164/50
f 97/164/51 98/163/51 100/165/51 99/166/51
f 99/166/52 100/165/52 102/167/52 101/168/52
f 101/168/53 102/167/53 104/169/53 103/170/53
f 103/170/54 104/169/54 106/171/54 105/172/54
f 105/172/55 106/171/55 108/173/55 107/174/55
f 107/174/56 108/173/56 110/175/56 109/176/56
f 109/176/57 110/175/57 112/177/57 111/178/57
f 111/178/58 112/177/58 114/179/58 113/180/58
f 113/180/59 114/179/59 116/181/59 115/182/59
f 115/182/60 116/181/60 118/183/60 117/184/60
f 117/184/61 118/183/61 120/185/61 119/186/61
f 119/186/62 120/185/62 122/187/62 121/188/62
f 121/188/63 122/187/63 124/189/63 123/190/63
f 123/190/64 124/189/64 126/191/64 125/192/64
f 68/193/65 66/194/65 128/195/65 126/196/65 124/197/65 122/198/65 120/199/65 118/200/65 116/201/65 114/202/65 112/203/65 110/204/65 108/205/65 106/206/65 104/207/65 102/208/65 100/209/65 98/210/65 96/211/65 94/212/65 92/213/65 90/214/65 88/215/65 86/216/65 84/217/65 82/218/65 80/219/65 78/220/65 76/221/65 74/222/65 72/223/65 70/224/65
f 125/192/66 126/191/66 128/225/66 127/226/66
f 127/226/67 128/225/67 66/227/67 65/228/67
f 65/229/68 67/230/68 69/231/68 71/232/68 73/233/68 75/234/68 77/235/68 79/236/68 81/237/68 83/238/68 85/239/68 87/240/68 89/241/68 91/242/68 93/243/68 95/244/68 97/245/68 99/246/68 101/247/68 103/248/68 105/249/68 107/250/68 109/251/68 111/252/68 113/253/68 115/254/68 117/255/68 119/256/68 121/257/68 123/258/68 125/259/68 127/260/68
o Cylinder.011_Cylinder.023
v 0.000000 2.110400 -3.294863
v 0.000000 2.110400 0.390064
v 0.019509 2.108479 -3.294863
v 0.019509 2.108479 0.390064
v 0.038268 2.102788 -3.294863
v 0.038268 2.102788 0.390064
v 0.055557 2.093547 -3.294863
v 0.055557 2.093547 0.390064
v 0.070711 2.081111 -3.294863
v 0.070711 2.081111 0.390064
v 0.083147 2.065957 -3.294863
v 0.083147 2.065957 0.390064
v 0.092388 2.048668 -3.294863
v 0.092388 2.048668 0.390064
v 0.098079 2.029909 -3.294863
v 0.098079 2.029909 0.390064
v 0.100000 2.010400 -3.294863
v 0.100000 2.010400 0.390064
v 0.098079 1.990891 -3.294863
v 0.098079 1.990891 0.390064
v 0.092388 1.972132 -3.294863
v 0.092388 1.972132 0.390064
v 0.083147 1.954843 -3.294863
v 0.083147 1.954843 0.390064
v 0.070711 1.939689 -3.294863
v 0.070711 1.939689 0.390064
v 0.055557 1.927253 -3.294863
v 0.055557 1.927253 0.390064
v 0.038268 1.918012 -3.294863
v 0.038268 1.918012 0.390064
v 0.019509 1.912322 -3.294863
v 0.019509 1.912321 0.390064
v -0.000000 1.910400 -3.294863
v -0.000000 1.910400 0.390064
v -0.019509 1.912322 -3.294863
v -0.019509 1.912321 0.390064
v -0.038268 1.918012 -3.294863
v -0.038268 1.918012 0.390064
v -0.055557 1.927253 -3.294863
v -0.055557 1.927253 0.390064
v -0.070711 1.939690 -3.294863
v -0.070711 1.939689 0.390064
v -0.083147 1.954843 -3.294863
v -0.083147 1.954843 0.390064
v -0.092388 1.972132 -3.294863
v -0.092388 1.972132 0.390064
v -0.098079 1.990891 -3.294863
v -0.098079 1.990891 0.390064
v -0.100000 2.010400 -3.294863
v -0.100000 2.010400 0.390064
v -0.098079 2.029909 -3.294863
v -0.098079 2.029909 0.390064
v -0.092388 2.048669 -3.294863
v -0.092388 2.048668 0.390064
v -0.083147 2.065957 -3.294863
v -0.083147 2.065957 0.390064
v -0.070711 2.081111 -3.294863
v -0.070711 2.081111 0.390064
v -0.055557 2.093547 -3.294863
v -0.055557 2.093547 0.390064
v -0.038268 2.102788 -3.294863
v -0.038268 2.102788 0.390064
v -0.019509 2.108479 -3.294863
v -0.019509 2.108479 0.390064
vt 1.000000 0.500000
vt 1.000000 1.000000
vt 0.968750 1.000000
vt 0.968750 0.500000
vt 0.937500 1.000000
vt 0.937500 0.500000
vt 0.906250 1.000000
vt 0.906250 0.500000
vt 0.875000 1.000000
vt 0.875000 0.500000
vt 0.843750 1.000000
vt 0.843750 0.500000
vt 0.812500 1.000000
vt 0.812500 0.500000
vt 0.781250 1.000000
vt 0.781250 0.500000
vt 0.750000 1.000000
vt 0.750000 0.500000
vt 0.718750 1.000000
vt 0.718750 0.500000
vt 0.687500 1.000000
vt 0.687500 0.500000
vt 0.656250 1.000000
vt 0.656250 0.500000
vt 0.625000 1.000000
vt 0.625000 0.500000
vt 0.593750 1.000000
vt 0.593750 0.500000
vt 0.562500 1.000000
vt 0.562500 0.500000
vt 0.531250 1.000000
vt 0.531250 0.500000
vt 0.500000 1.000000
vt 0.500000 0.500000
vt 0.468750 1.000000
vt 0.468750 0.500000
vt 0.437500 1.000000
vt 0.437500 0.500000
vt 0.406250 1.000000
vt 0.406250 0.500000
vt 0.375000 1.000000
vt 0.375000 0.500000
vt 0.343750 1.000000
vt 0.343750 0.500000
vt 0.312500 1.000000
vt 0.312500 0.500000
vt 0.281250 1.000000
vt 0.281250 0.500000
vt 0.250000 1.000000
vt 0.250000 0.500000
vt 0.218750 1.000000
vt 0.218750 0.500000
vt 0.187500 1.000000
vt 0.187500 0.500000
vt 0.156250 1.000000
vt 0.156250 0.500000
vt 0.125000 1.000000
vt 0.125000 0.500000
vt 0.093750 1.000000
vt 0.093750 0.500000
vt 0.062500 1.000000
vt 0.062500 0.500000
vt 0.296822 0.485388
vt 0.250000 0.490000
vt 0.203179 0.485389
vt 0.158156 0.471731
vt 0.116663 0.449553
vt 0.080295 0.419706
vt 0.050447 0.383337
vt 0.028269 0.341844
vt 0.014612 0.296822
vt 0.010000 0.250000
vt 0.014611 0.203179
vt 0.028269 0.158156
vt 0.050447 0.116663
vt 0.080294 0.080294
vt 0.116663 0.050447
vt 0.158156 0.028269
vt 0.203178 0.014612
vt 0.250000 0.010000
vt 0.296822 0.014612
vt 0.341844 0.028269
vt 0.383337 0.050447
vt 0.419706 0.080294
vt 0.449553 0.116663
vt 0.471731 0.158156
vt 0.485388 0.203178
vt 0.490000 0.250000
vt 0.485388 0.296822
vt 0.471731 0.341844
vt 0.449553 0.383337
vt 0.419706 0.419706
vt 0.383337 0.449553
vt 0.341844 0.471731
vt 0.031250 1.000000
vt 0.031250 0.500000
vt 0.000000 1.000000
vt 0.000000 0.500000
vt 0.750000 0.490000
vt 0.796822 0.485388
vt 0.841844 0.471731
vt 0.883337 0.449553
vt 0.919706 0.419706
vt 0.949553 0.383337
vt 0.971731 0.341844
vt 0.985388 0.296822
vt 0.990000 0.250000
vt 0.985388 0.203178
vt 0.971731 0.158156
vt 0.949553 0.116663
vt 0.919706 0.080294
vt 0.883337 0.050447
vt 0.841844 0.028269
vt 0.796822 0.014612
vt 0.750000 0.010000
vt 0.703178 0.014612
vt 0.658156 0.028269
vt 0.616663 0.050447
vt 0.580294 0.080294
vt 0.550447 0.116663
vt 0.528269 0.158156
vt 0.514611 0.203179
vt 0.510000 0.250000
vt 0.514612 0.296822
vt 0.528269 0.341844
vt 0.550447 0.383337
vt 0.580295 0.419706
vt 0.616663 0.449553
vt 0.658156 0.471731
vt 0.703179 0.485389
vn 0.0980 0.9952 0.0000
vn 0.2903 0.9569 0.0000
vn 0.4714 0.8819 0.0000
vn 0.6344 0.7730 0.0000
vn 0.7730 0.6344 0.0000
vn 0.8819 0.4714 0.0000
vn 0.9569 0.2903 0.0000
vn 0.9952 0.0980 0.0000
vn 0.9952 -0.0980 0.0000
vn 0.9569 -0.2903 0.0000
vn 0.8819 -0.4714 -0.0000
vn 0.7730 -0.6344 -0.0000
vn 0.6344 -0.7730 0.0000
vn 0.4714 -0.8819 -0.0000
vn 0.2903 -0.9569 -0.0000
vn 0.0980 -0.9952 -0.0000
vn -0.0980 -0.9952 -0.0000
vn -0.2903 -0.9569 -0.0000
vn -0.4714 -0.8819 -0.0000
vn -0.6344 -0.7730 -0.0000
vn -0.7730 -0.6344 0.0000
vn -0.8819 -0.4714 -0.0000
vn -0.9569 -0.2903 -0.0000
vn -0.9952 -0.0980 0.0000
vn -0.9952 0.0980 0.0000
vn -0.9569 0.2903 0.0000
vn -0.8819 0.4714 0.0000
vn -0.7730 0.6344 0.0000
vn -0.6344 0.7730 0.0000
vn -0.4714 0.8819 0.0000
vn -0.0000 0.0000 1.0000
vn -0.2903 0.9569 0.0000
vn -0.0980 0.9952 0.0000
vn 0.0000 0.0000 -1.0000
usemtl None
s off
f 129/261/69 130/262/69 132/263/69 131/264/69
f 131/264/70 132/263/70 134/265/70 133/266/70
f 133/266/71 134/265/71 136/267/71 135/268/71
f 135/268/72 136/267/72 138/269/72 137/270/72
f 137/270/73 138/269/73 140/271/73 139/272/73
f 139/272/74 140/271/74 142/273/74 141/274/74
f 141/274/75 142/273/75 144/275/75 143/276/75
f 143/276/76 144/275/76 146/277/76 145/278/76
f 145/278/77 146/277/77 148/279/77 147/280/77
f 147/280/78 148/279/78 150/281/78 149/282/78
f 149/282/79 150/281/79 152/283/79 151/284/79
f 151/284/80 152/283/80 154/285/80 153/286/80
f 153/286/81 154/285/81 156/287/81 155/288/81
f 155/288/82 156/287/82 158/289/82 157/290/82
f 157/290/83 158/289/83 160/291/83 159/292/83
f 159/292/84 160/291/84 162/293/84 161/294/84
f 161/294/85 162/293/85 164/295/85 163/296/85
f 163/296/86 164/295/86 166/297/86 165/298/86
f 165/298/87 166/297/87 168/299/87 167/300/87
f 167/300/88 168/299/88 170/301/88 169/302/88
f 169/302/89 170/301/89 172/303/89 171/304/89
f 171/304/90 172/303/90 174/305/90 173/306/90
f 173/306/91 174/305/91 176/307/91 175/308/91
f 175/308/92 176/307/92 178/309/92 177/310/92
f 177/310/93 178/309/93 180/311/93 179/312/93
f 179/312/94 180/311/94 182/313/94 181/314/94
f 181/314/95 182/313/95 184/315/95 183/316/95
f 183/316/96 184/315/96 186/317/96 185/318/96
f 185/318/97 186/317/97 188/319/97 187/320/97
f 187/320/98 188/319/98 190/321/98 189/322/98
f 132/323/99 130/324/99 192/325/99 190/326/99 188/327/99 186/328/99 184/329/99 182/330/99 180/331/99 178/332/99 176/333/99 174/334/99 172/335/99 170/336/99 168/337/99 166/338/99 164/339/99 162/340/99 160/341/99 158/342/99 156/343/99 154/344/99 152/345/99 150/346/99 148/347/99 146/348/99 144/349/99 142/350/99 140/351/99 138/352/99 136/353/99 134/354/99
f 189/322/100 190/321/100 192/355/100 191/356/100
f 191/356/101 192/355/101 130/357/101 129/358/101
f 129/359/102 131/360/102 133/361/102 135/362/102 137/363/102 139/364/102 141/365/102 143/366/102 145/367/102 147/368/102 149/369/102 151/370/102 153/371/102 155/372/102 157/373/102 159/374/102 161/375/102 163/376/102 165/377/102 167/378/102 169/379/102 171/380/102 173/381/102 175/382/102 177/383/102 179/384/102 181/385/102 183/386/102 185/387/102 187/388/102 189/389/102 191/390/102
o Cylinder.021_Cylinder.024
v 0.000000 0.564546 -2.965715
v 0.000000 0.564546 0.060916
v 0.013656 0.563201 -2.965715
v 0.013656 0.563201 0.060916
v 0.026788 0.559218 -2.965715
v 0.026788 0.559217 0.060916
v 0.038890 0.552749 -2.965715
v 0.038890 0.552749 0.060916
v 0.049497 0.544043 -2.965715
v 0.049497 0.544043 0.060916
v 0.058203 0.533436 -2.965715
v 0.058203 0.533436 0.060916
v 0.064672 0.521334 -2.965715
v 0.064672 0.521334 0.060916
v 0.068655 0.508202 -2.965715
v 0.068655 0.508202 0.060916
v 0.070000 0.494546 -2.965715
v 0.070000 0.494546 0.060916
v 0.068655 0.480890 -2.965715
v 0.068655 0.480890 0.060916
v 0.064672 0.467758 -2.965715
v 0.064672 0.467758 0.060916
v 0.058203 0.455656 -2.965715
v 0.058203 0.455656 0.060916
v 0.049497 0.445049 -2.965715
v 0.049497 0.445048 0.060916
v 0.038890 0.436343 -2.965715
v 0.038890 0.436343 0.060916
v 0.026788 0.429874 -2.965715
v 0.026788 0.429874 0.060916
v 0.013656 0.425891 -2.965715
v 0.013656 0.425891 0.060916
v -0.000000 0.424546 -2.965715
v -0.000000 0.424546 0.060916
v -0.013656 0.425891 -2.965715
v -0.013656 0.425891 0.060916
v -0.026788 0.429874 -2.965715
v -0.026788 0.429874 0.060916
v -0.038890 0.436343 -2.965715
v -0.038890 0.436343 0.060916
v -0.049498 0.445049 -2.965715
v -0.049498 0.445048 0.060916
v -0.058203 0.455656 -2.965715
v -0.058203 0.455656 0.060916
v -0.064672 0.467758 -2.965715
v -0.064672 0.467758 0.060916
v -0.068655 0.480890 -2.965715
v -0.068655 0.480890 0.060916
v -0.070000 0.494546 -2.965715
v -0.070000 0.494546 0.060916
v -0.068655 0.508202 -2.965715
v -0.068655 0.508202 0.060916
v -0.064672 0.521334 -2.965715
v -0.064672 0.521334 0.060916
v -0.058203 0.533436 -2.965715
v -0.058203 0.533436 0.060916
v -0.049497 0.544044 -2.965715
v -0.049497 0.544043 0.060916
v -0.038890 0.552749 -2.965715
v -0.038890 0.552749 0.060916
v -0.026788 0.559218 -2.965715
v -0.026788 0.559218 0.060916
v -0.013656 0.563201 -2.965715
v -0.013656 0.563201 0.060916
vt 1.000000 0.500000
vt 1.000000 1.000000
vt 0.968750 1.000000
vt 0.968750 0.500000
vt 0.937500 1.000000
vt 0.937500 0.500000
vt 0.906250 1.000000
vt 0.906250 0.500000
vt 0.875000 1.000000
vt 0.875000 0.500000
vt 0.843750 1.000000
vt 0.843750 0.500000
vt 0.812500 1.000000
vt 0.812500 0.500000
vt 0.781250 1.000000
vt 0.781250 0.500000
vt 0.750000 1.000000
vt 0.750000 0.500000
vt 0.718750 1.000000
vt 0.718750 0.500000
vt 0.687500 1.000000
vt 0.687500 0.500000
vt 0.656250 1.000000
vt 0.656250 0.500000
vt 0.625000 1.000000
vt 0.625000 0.500000
vt 0.593750 1.000000
vt 0.593750 0.500000
vt 0.562500 1.000000
vt 0.562500 0.500000
vt 0.531250 1.000000
vt 0.531250 0.500000
vt 0.500000 1.000000
vt 0.500000 0.500000
vt 0.468750 1.000000
vt 0.468750 0.500000
vt 0.437500 1.000000
vt 0.437500 0.500000
vt 0.406250 1.000000
vt 0.406250 0.500000
vt 0.375000 1.000000
vt 0.375000 0.500000
vt 0.343750 1.000000
vt 0.343750 0.500000
vt 0.312500 1.000000
vt 0.312500 0.500000
vt 0.281250 1.000000
vt 0.281250 0.500000
vt 0.250000 1.000000
vt 0.250000 0.500000
vt 0.218750 1.000000
vt 0.218750 0.500000
vt 0.187500 1.000000
vt 0.187500 0.500000
vt 0.156250 1.000000
vt 0.156250 0.500000
vt 0.125000 1.000000
vt 0.125000 0.500000
vt 0.093750 1.000000
vt 0.093750 0.500000
vt 0.062500 1.000000
vt 0.062500 0.500000
vt 0.296822 0.485388
vt 0.250000 0.490000
vt 0.203179 0.485389
vt 0.158156 0.471731
vt 0.116663 0.449553
vt 0.080295 0.419706
vt 0.050447 0.383337
vt 0.028269 0.341844
vt 0.014612 0.296822
vt 0.010000 0.250000
vt 0.014611 0.203179
vt 0.028269 0.158156
vt 0.050447 0.116663
vt 0.080294 0.080294
vt 0.116663 0.050447
vt 0.158156 0.028269
vt 0.203178 0.014612
vt 0.250000 0.010000
vt 0.296822 0.014612
vt 0.341844 0.028269
vt 0.383337 0.050447
vt 0.419706 0.080294
vt 0.449553 0.116663
vt 0.471731 0.158156
vt 0.485388 0.203178
vt 0.490000 0.250000
vt 0.485388 0.296822
vt 0.471731 0.341844
vt 0.449553 0.383337
vt 0.419706 0.419706
vt 0.383337 0.449553
vt 0.341844 0.471731
vt 0.031250 1.000000
vt 0.031250 0.500000
vt 0.000000 1.000000
vt 0.000000 0.500000
vt 0.750000 0.490000
vt 0.796822 0.485388
vt 0.841844 0.471731
vt 0.883337 0.449553
vt 0.919706 0.419706
vt 0.949553 0.383337
vt 0.971731 0.341844
vt 0.985388 0.296822
vt 0.990000 0.250000
vt 0.985388 0.203178
vt 0.971731 0.158156
vt 0.949553 0.116663
vt 0.919706 0.080294
vt 0.883337 0.050447
vt 0.841844 0.028269
vt 0.796822 0.014612
vt 0.750000 0.010000
vt 0.703178 0.014612
vt 0.658156 0.028269
vt 0.616663 0.050447
vt 0.580294 0.080294
vt 0.550447 0.116663
vt 0.528269 0.158156
vt 0.514611 0.203179
vt 0.510000 0.250000
vt 0.514612 0.296822
vt 0.528269 0.341844
vt 0.550447 0.383337
vt 0.580295 0.419706
vt 0.616663 0.449553
vt 0.658156 0.471731
vt 0.703179 0.485389
vn 0.0980 0.9952 0.0000
vn 0.2903 0.9569 0.0000
vn 0.4714 0.8819 0.0000
vn 0.6344 0.7730 0.0000
vn 0.7730 0.6344 0.0000
vn 0.8819 0.4714 0.0000
vn 0.9569 0.2903 0.0000
vn 0.9952 0.0980 0.0000
vn 0.9952 -0.0980 -0.0000
vn 0.9569 -0.2903 -0.0000
vn 0.8819 -0.4714 -0.0000
vn 0.7730 -0.6344 -0.0000
vn 0.6344 -0.7730 -0.0000
vn 0.4714 -0.8819 -0.0000
vn 0.2903 -0.9569 -0.0000
vn 0.0980 -0.9952 -0.0000
vn -0.0980 -0.9952 -0.0000
vn -0.2903 -0.9569 -0.0000
vn -0.4714 -0.8819 -0.0000
vn -0.6344 -0.7730 -0.0000
vn -0.7730 -0.6344 -0.0000
vn -0.8819 -0.4714 -0.0000
vn -0.9569 -0.2903 -0.0000
vn -0.9952 -0.0980 -0.0000
vn -0.9952 0.0980 0.0000
vn -0.9569 0.2903 0.0000
vn -0.8819 0.4714 0.0000
vn -0.7730 0.6344 0.0000
vn -0.6344 0.7730 0.0000
vn -0.4714 0.8819 0.0000
vn 0.0000 0.0000 1.0000
vn -0.2903 0.9569 0.0000
vn -0.0980 0.9952 0.0000
vn 0.0000 0.0000 -1.0000
usemtl None
s off
f 193/391/103 194/392/103 196/393/103 195/394/103
f 195/394/104 196/393/104 198/395/104 197/396/104
f 197/396/105 198/395/105 200/397/105 199/398/105
f 199/398/106 200/397/106 202/399/106 201/400/106
f 201/400/107 202/399/107 204/401/107 203/402/107
f 203/402/108 204/401/108 206/403/108 205/404/108
f 205/404/109 206/403/109 208/405/109 207/406/109
f 207/406/110 208/405/110 210/407/110 209/408/110
f 209/408/111 210/407/111 212/409/111 211/410/111
f 211/410/112 212/409/112 214/411/112 213/412/112
f 213/412/113 214/411/113 216/413/113 215/414/113
f 215/414/114 216/413/114 218/415/114 217/416/114
f 217/416/115 218/415/115 220/417/115 219/418/115
f 219/418/116 220/417/116 222/419/116 221/420/116
f 221/420/117 222/419/117 224/421/117 223/422/117
f 223/422/118 224/421/118 226/423/118 225/424/118
f 225/424/119 226/423/119 228/425/119 227/426/119
f 227/426/120 228/425/120 230/427/120 229/428/120
f 229/428/121 230/427/121 232/429/121 231/430/121
f 231/430/122 232/429/122 234/431/122 233/432/122
f 233/432/123 234/431/123 236/433/123 235/434/123
f 235/434/124 236/433/124 238/435/124 237/436/124
f 237/436/125 238/435/125 240/437/125 239/438/125
f 239/438/126 240/437/126 242/439/126 241/440/126
f 241/440/127 242/439/127 244/441/127 243/442/127
f 243/442/128 244/441/128 246/443/128 245/444/128
f 245/444/129 246/443/129 248/445/129 247/446/129
f 247/446/130 248/445/130 250/447/130 249/448/130
f 249/448/131 250/447/131 252/449/131 251/450/131
f 251/450/132 252/449/132 254/451/132 253/452/132
f 196/453/133 194/454/133 256/455/133 254/456/133 252/457/133 250/458/133 248/459/133 246/460/133 244/461/133 242/462/133 240/463/133 238/464/133 236/465/133 234/466/133 232/467/133 230/468/133 228/469/133 226/470/133 224/471/133 222/472/133 220/473/133 218/474/133 216/475/133 214/476/133 212/477/133 210/478/133 208/479/133 206/480/133 204/481/133 202/482/133 200/483/133 198/484/133
f 253/452/134 254/451/134 256/485/134 255/486/134
f 255/486/135 256/485/135 194/487/135 193/488/135
f 193/489/136 195/490/136 197/491/136 199/492/136 201/493/136 203/494/136 205/495/136 207/496/136 209/497/136 211/498/136 213/499/136 215/500/136 217/501/136 219/502/136 221/503/136 223/504/136 225/505/136 227/506/136 229/507/136 231/508/136 233/509/136 235/510/136 237/511/136 239/512/136 241/513/136 243/514/136 245/515/136 247/516/136 249/517/136 251/518/136 253/519/136 255/520/136
