# Blender v2.80 (sub 75) OBJ File: 'objek.blend'
# www.blender.org
mtllib pos2.mtl
o atap_Cube.001
v -5.998182 4.613882 6.962450
v 0.001818 6.613882 -0.037550
v -5.998182 4.613882 -7.037550
v 6.001818 4.613882 6.962450
v 6.001818 4.613882 -7.037550
v 6.001818 4.015417 6.962450
v 6.001818 4.015417 -7.037550
v -5.998182 4.015417 6.962450
v -5.998182 4.015417 -7.037550
vt 0.375000 0.000000
vt 0.625000 0.250000
vt 0.375000 0.250000
vt 0.625000 0.500000
vt 0.375000 0.500000
vt 0.625000 0.750000
vt 0.375000 0.750000
vt 0.625000 1.000000
vt 0.375000 1.000000
vt 0.375000 0.500000
vt 0.375000 0.250000
vt 0.375000 1.000000
vt 0.375000 0.750000
vt 0.375000 0.000000
vn -0.3162 0.9487 0.0000
vn 0.0000 0.9615 -0.2747
vn 0.3162 0.9487 0.0000
vn 0.0000 0.9615 0.2747
vn 0.0000 0.0000 -1.0000
vn 0.0000 0.0000 1.0000
vn 1.0000 0.0000 0.0000
vn 0.0000 -1.0000 0.0000
vn -1.0000 0.0000 0.0000
usemtl None
s off
f 1/1/1 2/2/1 3/3/1
f 3/3/2 2/4/2 5/5/2
f 5/5/3 2/6/3 4/7/3
f 4/7/4 2/8/4 1/9/4
f 3/3/5 5/5/5 7/10/5 9/11/5
f 4/7/6 1/9/6 8/12/6 6/13/6
f 5/5/7 4/7/7 6/13/7 7/10/7
f 9/11/8 7/10/8 6/13/8 8/12/8
f 1/1/9 3/3/9 9/11/9 8/14/9
o badan_Cube.026
v -5.998182 -3.958833 6.962450
v -5.998182 4.041167 6.962450
v -5.998182 -3.958833 -7.037550
v -5.998182 4.041167 -7.037550
v 6.001818 -3.958833 6.962450
v 6.001818 4.041167 6.962450
v 6.001818 -3.958833 -7.037550
v 6.001818 4.041167 -7.037550
v -5.998182 -3.958833 5.983428
v -5.998182 4.041167 5.983428
v 6.001818 -3.958833 5.983428
v 6.001818 4.041167 5.983428
v -5.998182 4.041167 -6.009578
v 6.001818 -3.958833 -6.009578
v -5.998182 -3.958833 -6.009578
v 6.001818 4.041167 -6.009578
v -4.965395 -3.958833 -7.037550
v -4.965395 4.041167 -7.037550
v -4.965395 -3.958833 6.962450
v -4.965395 4.041167 6.962450
v -4.965395 4.041167 5.983428
v -4.965395 -3.958833 5.983428
v -4.965395 -3.958833 -6.009578
v -4.965395 4.041167 -6.009578
v 4.973642 4.041167 -7.037550
v 4.973642 -3.958833 6.962450
v 4.973642 4.041167 5.983428
v 4.973642 4.041167 -6.009578
v 4.973642 -3.958833 -7.037550
v 4.973642 4.041167 6.962450
v 4.973642 -3.958833 5.983428
v 4.973642 -3.958833 -6.009578
v 3.005516 -3.958833 -7.037550
v 3.005516 -3.958833 5.983428
v 3.005516 -3.958833 -6.009578
v 3.005516 -3.958833 6.962450
v -2.997269 -3.958833 -7.037550
v -2.997269 -3.958833 5.983428
v -2.997269 -3.958833 -6.009578
v -2.997269 -3.958833 6.962450
v -5.998182 -3.958833 -3.994360
v 6.001818 -3.958833 -3.994360
v -4.965395 -3.958833 -3.994360
v 4.973642 -3.958833 -3.994360
v 3.005516 -3.958833 -3.994360
v 2.749591 4.041167 -3.781238
v -2.997269 -3.958833 -3.994360
v -2.741344 4.041167 -3.781238
v -5.998182 -3.958833 3.997558
v -4.965395 -3.958833 3.997558
v 4.973642 -3.958833 3.997558
v 3.005516 -3.958833 3.997558
v 2.749591 4.041167 3.784435
v -2.997269 -3.958833 3.997558
v -2.741344 4.041167 3.784435
v 6.001818 -3.958833 3.997558
v -5.998182 -3.012087 6.962450
v -5.998182 -3.012087 -7.037550
v 6.001818 -3.012087 -7.037550
v 6.001818 -3.012087 6.962450
v 6.001818 -3.012087 5.983428
v -5.998182 -3.012087 5.983428
v 6.001818 -3.012087 -6.009578
v -5.998182 -3.012087 -6.009578
v -4.965395 -3.012087 6.962450
v -4.965395 -3.012087 -7.037550
v 4.973642 -3.012087 6.962450
v 4.973642 -3.012087 -7.037550
v 3.005516 -3.012087 -7.037550
v 3.005516 -3.012087 6.962450
v -2.997269 -3.012087 -7.037550
v -2.997269 -3.012087 6.962450
v -5.998182 -3.012087 -3.994360
v 6.001818 -3.012087 -3.994360
v -5.998182 -3.012087 3.997558
v 6.001818 -3.012087 3.997558
v -5.998182 -3.485460 -7.037550
v 6.001818 -3.485460 -7.037550
v 6.001818 -3.485460 6.962450
v 6.001818 -3.485460 5.983428
v -5.998182 -3.485460 5.983428
v 6.001818 -3.485460 -6.009578
v -5.998182 -3.485460 -6.009578
v -4.965395 -3.485460 6.962450
v -4.965395 -3.485460 -7.037550
v 4.973642 -3.485460 6.962450
v 4.973642 -3.485460 -7.037550
v 3.005516 -3.485460 -7.037550
v 3.005516 -3.485460 6.962450
v -2.997269 -3.485460 -7.037550
v -2.997269 -3.485460 6.962450
v -5.998182 -3.485460 -3.994360
v 6.001818 -3.485460 -3.994360
v -5.998182 -3.485460 3.997558
v 6.001818 -3.485460 3.997558
v -5.998182 -3.485460 6.962450
v 5.487731 4.041167 -7.037550
v 5.487731 -3.958833 6.962450
v 5.487731 4.041167 5.983428
v 5.487731 4.041167 -6.009578
v 5.487731 -3.958833 -7.037550
v 5.487731 4.041167 6.962450
v 5.487731 -3.958833 5.983428
v 5.487731 -3.958833 -6.009578
v 5.487731 -3.958833 -3.994360
v 5.487731 -3.958833 3.997558
v 5.487731 -3.012087 6.962450
v 5.487731 -3.012087 -7.037550
v 5.487731 -3.485460 -7.037550
v 5.487731 -3.485460 6.962450
v -5.998182 -2.499840 6.962450
v -5.998182 -2.499840 -7.037550
v 6.001818 -2.499840 -7.037550
v 6.001818 -2.499840 6.962450
v 6.001818 -2.499840 5.983428
v -5.998182 -2.499840 5.983428
v 6.001818 -2.499840 -6.009578
v -5.998182 -2.499840 -6.009578
v -4.965395 -2.499840 6.962450
v -4.965395 -2.499840 -7.037550
v 4.973642 -2.499840 6.962450
v 4.973642 -2.499840 -7.037550
v 3.005516 -2.499840 -7.037550
v 3.005516 -2.499840 6.962450
v -2.997269 -2.499840 -7.037550
v -2.997269 -2.499840 6.962450
v -5.998182 -2.499840 -3.994360
v 6.001818 -2.499840 -3.994360
v -5.998182 -2.499840 3.997558
v 6.001818 -2.499840 3.997558
v 5.487731 -2.499840 6.962450
v 5.487731 -2.499840 -7.037550
v 4.974355 -3.958833 -3.994360
v 4.974355 -3.958833 3.997558
v 4.974355 -3.012087 -3.994360
v 4.974355 -3.012087 3.997558
v 4.974355 -3.485460 -3.994360
v 4.974355 -3.485460 3.997558
v 4.974355 -2.499840 -3.994360
v 4.974355 -2.499840 3.997558
v 5.488086 -3.012087 3.997558
v 5.488086 -3.485460 3.997558
v 5.488086 -3.958833 3.997558
v 5.488086 -2.499840 3.997558
v 5.488086 -3.485460 -3.994360
v 5.488086 -3.012087 -3.994360
v 5.488086 -3.958833 -3.994360
v 5.488086 -2.499840 -3.994360
v -2.997269 -2.498597 -6.009578
v -4.965395 -2.498597 -6.009578
v 4.973642 -2.498597 3.997558
v 4.973642 -2.498597 5.983428
v 3.005516 -2.498597 5.983428
v 4.973642 -2.498597 -6.009578
v 3.005516 -2.498597 -6.009578
v 3.005516 -2.498597 3.997558
v -2.997269 -2.498597 3.997558
v -2.997269 -2.498597 5.983428
v -4.965395 -2.498597 -3.994360
v 4.973642 -2.498597 -3.994360
v 3.005516 -2.498597 -3.994360
v -2.997269 -2.498597 -3.994360
v -4.965395 -2.498597 3.997558
v -2.997269 -2.497404 5.983428
v -4.965395 -2.497404 5.983428
v -4.965395 -2.497404 3.997558
v 4.973642 -2.497404 3.997558
v 4.973642 -2.497404 5.983428
v 3.005516 -2.497404 5.983428
v 3.005516 -2.497404 3.997558
v -2.997269 4.041167 -3.994360
v 3.005516 4.041167 -3.994360
v 3.005516 4.041167 3.997558
v -2.997269 4.041167 3.997558
v -2.741344 -2.520572 -3.781238
v 2.749591 -2.520572 -3.781238
v 2.749591 -2.520572 3.784435
v -2.741344 -2.520572 3.784435
vt 0.420594 0.231643
vt 0.625000 0.231643
vt 0.625000 0.250000
vt 0.420594 0.250000
vt 0.420594 0.489290
vt 0.625000 0.489290
vt 0.625000 0.500000
vt 0.420594 0.500000
vt 0.420594 0.732517
vt 0.625000 0.732517
vt 0.625000 0.750000
vt 0.420594 0.750000
vt 0.420594 0.978484
vt 0.625000 0.978484
vt 0.625000 1.000000
vt 0.420594 1.000000
vt 0.364290 0.732517
vt 0.375000 0.732517
vt 0.375000 0.750000
vt 0.364290 0.750000
vt 0.364290 0.697056
vt 0.375000 0.697056
vt 0.420594 0.000000
vt 0.625000 0.000000
vt 0.625000 0.017483
vt 0.420594 0.017483
vt 0.625000 0.518357
vt 0.420594 0.518357
vt 0.364290 0.500000
vt 0.375000 0.500000
vt 0.375000 0.518357
vt 0.364290 0.518357
vt 0.125000 0.500000
vt 0.146516 0.500000
vt 0.146516 0.518357
vt 0.125000 0.518357
vt 0.125000 0.697056
vt 0.146516 0.697056
vt 0.146516 0.732517
vt 0.125000 0.732517
vt 0.146516 0.750000
vt 0.125000 0.750000
vt 0.625000 0.271516
vt 0.420594 0.271516
vt 0.420594 0.760710
vt 0.625000 0.760710
vt 0.625000 0.771420
vt 0.420594 0.771420
vt 0.312577 0.500000
vt 0.353580 0.500000
vt 0.353580 0.518357
vt 0.312577 0.518357
vt 0.353580 0.554343
vt 0.353580 0.554343
vt 0.353580 0.518357
vt 0.312577 0.732517
vt 0.353580 0.732517
vt 0.353580 0.750000
vt 0.312577 0.750000
vt 0.187519 0.732517
vt 0.187519 0.750000
vt 0.187519 0.697056
vt 0.312577 0.697056
vt 0.187519 0.500000
vt 0.187519 0.518357
vt 0.312577 0.732517
vt 0.353580 0.732517
vt 0.312577 0.554343
vt 0.187519 0.554343
vt 0.146516 0.554343
vt 0.146516 0.554343
vt 0.187519 0.554343
vt 0.125000 0.554343
vt 0.646420 0.750000
vt 0.646420 0.732517
vt 0.000000 0.000000
vt 0.375000 0.554343
vt 0.364290 0.554343
vt 0.000000 0.000000
vt 0.000000 0.000000
vt 0.000000 0.000000
vt 0.000000 0.000000
vt 0.000000 0.000000
vt 0.807149 0.559675
vt 0.807149 0.691724
vt 0.807149 0.691724
vt 0.807149 0.559675
vt 0.353580 0.697056
vt 0.389793 0.017483
vt 0.404586 0.017483
vt 0.404586 0.052944
vt 0.389793 0.052944
vt 0.389793 0.518357
vt 0.404586 0.518357
vt 0.404586 0.554343
vt 0.389793 0.554343
vt 0.404586 0.195657
vt 0.389793 0.195657
vt 0.389793 0.812423
vt 0.404586 0.812423
vt 0.404586 0.937481
vt 0.389793 0.937481
vt 0.389793 0.271516
vt 0.404586 0.271516
vt 0.404586 0.312519
vt 0.389793 0.312519
vt 0.389793 0.771420
vt 0.404586 0.771420
vt 0.404586 0.437577
vt 0.389793 0.437577
vt 0.404586 0.478580
vt 0.389793 0.478580
vt 0.389793 0.760710
vt 0.404586 0.760710
vt 0.389793 0.250000
vt 0.404586 0.250000
vt 0.404586 0.978484
vt 0.389793 0.978484
vt 0.404586 0.231643
vt 0.389793 0.231643
vt 0.389793 0.500000
vt 0.404586 0.500000
vt 0.389793 0.000000
vt 0.404586 0.000000
vt 0.389793 0.697056
vt 0.404586 0.697056
vt 0.404586 0.732517
vt 0.389793 0.732517
vt 0.404586 1.000000
vt 0.389793 1.000000
vt 0.404586 0.750000
vt 0.389793 0.750000
vt 0.389793 0.489290
vt 0.404586 0.489290
vt 0.375000 0.231643
vt 0.375000 0.250000
vt 0.375000 0.489290
vt 0.375000 0.978484
vt 0.375000 1.000000
vt 0.375000 0.000000
vt 0.375000 0.017483
vt 0.375000 0.195657
vt 0.375000 0.937481
vt 0.375000 0.271516
vt 0.375000 0.760710
vt 0.375000 0.771420
vt 0.375000 0.437577
vt 0.375000 0.478580
vt 0.375000 0.312519
vt 0.375000 0.812423
vt 0.375000 0.052944
vt 0.420594 0.478580
vt 0.625000 0.478580
vt 0.420594 0.052944
vt 0.420594 0.554343
vt 0.420594 0.195657
vt 0.420594 0.812423
vt 0.420594 0.937481
vt 0.420594 0.312519
vt 0.420594 0.437577
vt 0.420594 0.697056
vt 0.853484 0.750000
vt 0.853484 0.732517
vt 0.875000 0.732517
vt 0.875000 0.518357
vt 0.853484 0.518357
vt 0.853484 0.500000
vt 0.646420 0.518357
vt 0.646420 0.500000
vt 0.000000 0.000000
vt 0.000000 0.000000
vt 0.000000 0.000000
vt 0.000000 0.000000
vt 0.000000 0.000000
vt 0.000000 0.000000
vt 0.404586 0.697056
vt 0.389793 0.697056
vt 0.389793 0.697056
vt 0.404586 0.697056
vt 0.389793 0.554343
vt 0.404586 0.554343
vt 0.404586 0.554343
vt 0.389793 0.554343
vt 0.375000 0.697056
vt 0.375000 0.697056
vt 0.420594 0.697056
vt 0.420594 0.697056
vt 0.375000 0.554343
vt 0.375000 0.554343
vt 0.420594 0.554343
vt 0.420594 0.554343
vt 0.312577 0.697056
vt 0.187519 0.697056
vt 0.187519 0.732517
vt 0.312577 0.518357
vt 0.312577 0.554343
vt 0.146516 0.697056
vt 0.187519 0.518357
vt 0.146516 0.518357
vt 0.353580 0.697056
vt 0.000000 0.000000
vt 0.000000 0.000000
vt 0.000000 0.000000
vt 0.000000 0.000000
vt 0.000000 0.000000
vt 0.000000 0.000000
vt 0.000000 0.000000
vt 0.312577 0.697056
vt 0.353580 0.697056
vt 0.000000 0.000000
vt 0.000000 0.000000
vt 0.000000 0.000000
vt 0.312577 0.732517
vt 0.353580 0.732517
vt 0.146516 0.732517
vt 0.187519 0.732517
vt 0.146516 0.697056
vt 0.000000 0.000000
vt 0.000000 0.000000
vt 0.000000 0.000000
vt 0.000000 0.000000
vt 0.000000 0.000000
vt 0.000000 0.000000
vt 0.687423 0.554343
vt 0.687423 0.697056
vt 0.812481 0.697056
vt 0.812481 0.554343
vt 0.692755 0.559675
vt 0.692755 0.691724
vt 0.692755 0.559675
vt 0.692755 0.691724
vn -1.0000 0.0000 0.0000
vn 0.0000 0.0000 -1.0000
vn 1.0000 0.0000 0.0000
vn 0.0000 0.0000 1.0000
vn 0.0000 -1.0000 0.0000
vn 0.0000 1.0000 0.0000
vn -0.0024 1.0000 0.0000
vn 0.0000 1.0000 0.0025
vn 0.0000 1.0000 -0.0006
vn 0.0024 1.0000 0.0000
vn 0.0012 1.0000 0.0000
vn 0.0000 1.0000 -0.0012
vn 0.0012 -1.0000 0.0000
vn -0.0018 1.0000 -0.0001
vn 0.0000 -1.0000 0.0001
vn 0.0000 1.0000 -0.0004
vn -0.0001 1.0000 -0.0003
vn 0.0001 -1.0000 0.0001
usemtl None
s off
f 127/15/10 22/16/10 13/17/10 121/18/10
f 141/19/11 106/20/11 17/21/11 122/22/11
f 124/23/12 21/24/12 15/25/12 123/26/12
f 128/27/13 29/28/13 11/29/13 120/30/13
f 112/31/14 20/32/14 14/33/14 107/34/14
f 115/35/14 65/36/14 20/32/14 112/31/14
f 120/37/10 11/38/10 19/39/10 125/40/10
f 122/22/12 17/21/12 25/41/12 126/42/12
f 110/43/14 16/44/14 23/45/14 113/46/14
f 12/47/14 26/48/14 32/49/14 24/50/14
f 58/51/14 59/52/14 31/53/14 18/54/14
f 18/54/14 31/53/14 28/55/14 10/56/14
f 121/18/11 13/17/11 27/57/11 129/58/11
f 140/59/13 111/60/13 39/61/13 130/62/13
f 42/63/14 38/64/14 41/65/14 44/66/14
f 41/65/10 53/67/10 169/68/10 163/69/10
f 43/70/14 40/71/14 35/72/14 45/73/14
f 47/74/14 43/70/14 45/73/14 49/75/14
f 63/76/14 61/77/14 43/70/14 47/74/14
f 46/78/14 42/63/14 44/66/14 48/79/14
f 26/48/14 46/78/14 48/79/14 32/49/14
f 59/52/14 63/76/14 47/74/14 31/53/14
f 31/53/14 47/74/14 49/75/14 28/55/14
f 40/71/11 43/70/11 162/80/11 161/81/11
f 48/79/14 44/66/14 54/82/14 56/83/14
f 56/83/11 52/84/11 168/85/11 171/86/11
f 24/50/14 32/49/14 52/84/14 50/87/14
f 35/72/10 39/88/10 36/89/10 40/90/10
f 113/46/14 23/45/14 51/91/14 114/92/14
f 36/93/11 108/94/11 21/95/11 20/96/11 112/97/11 40/90/11
f 57/98/12 64/99/12 187/100/12 184/101/12
f 52/84/14 56/83/14 63/76/14 59/52/14
f 56/83/14 54/82/14 61/77/14 63/76/14
f 54/82/14 53/67/14 60/102/14 61/77/14
f 50/87/14 52/84/14 59/52/14 58/51/14
f 114/92/14 51/91/14 65/36/14 115/35/14
f 90/103/10 71/104/10 84/105/10 103/106/10
f 91/107/12 72/108/12 83/109/12 102/110/12
f 103/106/10 84/105/10 82/111/10 101/112/10
f 98/113/13 79/114/13 81/115/13 100/116/13
f 94/117/11 75/118/11 80/119/11 99/120/11
f 95/121/13 76/122/13 79/114/13 98/113/13
f 99/120/11 80/119/11 78/123/11 97/124/11
f 97/124/11 78/123/11 77/125/11 96/126/11
f 119/127/13 116/128/13 76/122/13 95/121/13
f 86/129/11 67/130/11 75/118/11 94/117/11
f 100/116/13 81/115/13 74/131/13 93/132/13
f 101/112/10 82/111/10 73/133/10 92/134/10
f 87/135/12 68/136/12 72/108/12 91/107/12
f 105/137/10 66/138/10 71/104/10 90/103/10
f 104/139/12 85/140/12 70/141/12 89/142/12
f 93/132/13 74/131/13 66/143/13 105/144/13
f 89/142/12 70/141/12 69/145/12 88/146/12
f 118/147/11 117/148/11 68/136/11 87/135/11
f 92/134/10 73/133/10 67/130/10 86/129/10
f 24/149/10 92/134/10 86/129/10 12/150/10
f 110/151/11 118/147/11 87/135/11 16/44/11
f 20/32/12 89/142/12 88/146/12 14/33/12
f 28/152/13 93/132/13 105/144/13 10/153/13
f 65/36/12 104/139/12 89/142/12 20/32/12
f 10/154/10 105/137/10 90/103/10 18/155/10
f 16/44/12 87/135/12 91/107/12 23/45/12
f 50/156/10 101/112/10 92/134/10 24/149/10
f 49/157/13 100/116/13 93/132/13 28/152/13
f 12/150/11 86/129/11 94/117/11 26/158/11
f 107/159/13 119/127/13 95/121/13 35/160/13
f 42/161/11 97/124/11 96/126/11 38/162/11
f 46/163/11 99/120/11 97/124/11 42/161/11
f 35/160/13 95/121/13 98/113/13 45/164/13
f 26/158/11 94/117/11 99/120/11 46/163/11
f 45/164/13 98/113/13 100/116/13 49/157/13
f 58/165/10 103/106/10 101/112/10 50/156/10
f 23/45/12 91/107/12 102/110/12 51/91/12
f 18/155/10 90/103/10 103/106/10 58/165/10
f 51/91/12 102/110/12 104/139/12 65/36/12
f 14/33/13 88/146/13 119/127/13 107/159/13
f 38/162/11 96/126/11 118/147/11 110/151/11
f 96/126/11 77/125/11 117/148/11 118/147/11
f 88/146/13 69/145/13 116/128/13 119/127/13
f 53/67/14 114/92/14 115/35/14 60/102/14
f 41/65/14 113/46/14 114/92/14 53/67/14
f 123/26/13 15/25/13 111/60/13 140/59/13
f 38/64/14 110/43/14 113/46/14 41/65/14
f 60/102/14 115/35/14 112/31/14 40/71/14
f 40/71/14 112/31/14 107/34/14 35/72/14
f 131/166/11 34/167/11 106/20/11 141/19/11
f 77/125/11 131/166/11 141/19/11 117/148/11
f 69/145/13 123/26/13 140/59/13 116/128/13
f 71/104/10 125/40/10 138/168/10 84/105/10
f 72/108/12 126/42/12 137/169/12 83/109/12
f 84/105/10 138/168/10 136/170/10 82/111/10
f 79/114/13 133/171/13 135/172/13 81/115/13
f 75/118/11 129/58/11 134/173/11 80/119/11
f 76/122/13 130/62/13 133/171/13 79/114/13
f 80/119/11 134/173/11 132/174/11 78/123/11
f 78/123/11 132/174/11 131/166/11 77/125/11
f 116/128/13 140/59/13 130/62/13 76/122/13
f 67/130/11 121/18/11 129/58/11 75/118/11
f 81/115/13 135/172/13 128/27/13 74/131/13
f 82/111/10 136/170/10 127/15/10 73/133/10
f 68/136/12 122/22/12 126/42/12 72/108/12
f 66/138/10 120/37/10 125/40/10 71/104/10
f 85/140/12 139/175/12 124/23/12 70/141/12
f 74/131/13 128/27/13 120/30/13 66/143/13
f 70/141/12 124/23/12 123/26/12 69/145/12
f 117/148/11 141/19/11 122/22/11 68/136/11
f 73/133/10 127/15/10 121/18/10 67/130/10
f 28/55/10 29/176/10 30/177/10 31/53/10
f 19/178/13 18/54/13 31/53/13 30/177/13
f 24/50/11 22/179/11 33/180/11 32/49/11
f 27/181/10 26/48/10 32/49/10 33/180/10
f 37/182/10 34/183/10 38/64/10 41/65/10
f 109/184/13 37/185/13 41/186/13 113/187/13 23/188/13 25/189/13
f 150/190/11 151/191/11 147/192/11 145/193/11
f 154/194/13 155/195/13 144/196/13 146/197/13
f 152/198/13 151/191/13 147/192/13 143/199/13
f 153/200/11 150/190/11 145/193/11 149/201/11
f 154/194/11 156/202/11 142/203/11 146/197/11
f 155/195/13 157/204/13 148/205/13 144/196/13
f 142/203/10 143/199/10 147/192/10 146/197/10
f 146/197/12 144/196/12 145/193/12 147/192/12
f 144/196/12 148/205/12 149/201/12 145/193/12
f 139/175/11 85/140/11 150/190/11 153/200/11
f 65/36/13 104/139/13 151/191/13 152/198/13
f 85/140/11 104/139/11 151/191/11 150/190/11
f 83/109/13 137/169/13 157/204/13 155/195/13
f 102/110/11 51/91/11 156/202/11 154/194/11
f 102/110/13 83/109/13 155/195/13 154/194/13
f 104/139/15 102/110/15 154/194/15 151/191/15
f 145/193/14 144/196/14 155/195/14 150/190/14
f 150/190/12 151/191/12 154/194/12 155/195/12
f 43/70/12 61/77/12 165/206/12 162/80/12
f 47/74/12 63/76/12 166/207/12 167/208/12
f 44/66/13 41/65/13 163/69/13 164/209/13
f 54/82/12 44/66/12 164/209/12 170/210/12
f 59/52/13 63/76/13 166/207/13 172/211/13
f 32/49/13 48/79/13 158/212/13 159/213/13
f 53/67/11 54/82/11 170/210/11 169/68/11
f 60/102/10 40/71/10 161/81/10 160/214/10
f 48/79/10 56/83/10 171/86/10 158/212/10
f 61/77/13 60/102/13 160/214/13 165/206/13
f 52/84/12 32/49/12 159/213/12 168/85/12
f 56/215/15 48/216/15 32/217/15 52/218/15
f 53/219/15 41/186/15 44/220/15 54/221/15
f 60/102/11 61/77/11 179/222/11 176/223/11
f 61/224/14 60/225/14 40/90/14 43/226/14
f 61/77/10 43/70/10 178/227/10 179/222/10
f 40/71/12 60/102/12 176/223/12 177/228/12
f 47/74/11 31/53/11 174/229/11 173/230/11
f 43/70/13 40/71/13 177/228/13 178/227/13
f 59/52/10 31/53/10 174/229/10 175/231/10
f 125/40/16 174/229/16 175/231/16 138/168/16
f 128/27/17 135/172/17 173/230/17 174/229/17
f 166/207/18 172/211/18 174/229/18 173/230/18
f 133/171/17 130/62/17 177/228/17 178/227/17
f 177/228/15 176/223/15 179/222/15 178/227/15
f 139/175/19 176/223/19 177/228/19 124/23/19
f 137/169/20 126/42/20 163/69/20 169/68/20
f 132/174/21 164/209/21 163/69/21 131/166/21
f 129/58/21 159/213/21 158/212/21 134/173/21
f 159/213/14 158/212/14 171/86/14 168/85/14
f 127/15/22 159/213/22 168/85/22 136/170/22
f 164/209/14 163/69/14 169/68/14 170/210/14
f 136/170/23 138/168/23 175/231/23 168/85/23
f 133/171/17 178/227/17 173/230/17 135/172/17
f 170/210/24 169/68/24 176/223/24 179/222/24
f 134/232/25 158/233/25 171/234/25 170/235/25 164/236/25 132/237/25
f 171/86/14 166/207/14 172/211/14 168/85/14
f 166/207/26 173/230/26 178/227/26 179/222/26
f 181/238/10 54/82/10 61/77/10 182/239/10
f 61/77/13 182/239/13 183/240/13 63/76/13
f 180/241/10 56/83/10 63/76/10 183/240/10
f 181/238/11 54/82/11 56/83/11 180/241/11
f 57/98/15 55/242/15 181/238/15 180/241/15
f 64/99/15 57/98/15 180/241/15 183/240/15
f 62/243/15 64/99/15 183/240/15 182/239/15
f 179/222/27 166/207/27 171/86/27 170/235/27
f 185/244/15 184/101/15 187/100/15 186/245/15
f 55/242/13 57/98/13 184/101/13 185/244/13
f 64/99/11 62/243/11 186/245/11 187/100/11
f 186/245/10 62/243/10 55/242/10 185/244/10
f 182/239/14 62/243/14 55/242/14 181/238/14
